{
  "dev": {
    "url": "git@gitlab.com:shang-music/kugou-lrc.git",
    "remote": "gitlab",
    "branch": "develop"
  },
  "prod": {
    "url": "",
    "remote": "prod",
    "branch": "__package_name__"
  }
}